{
    "swagger": "2.0",
    "info": { "version": "v1", "title": "TODO Api" },
    "host": "localhost:5000",
    "paths": {
        "/api/TodoGroups/List": {
            "get": {
                "tags": ["TodoGroups"],
                "operationId": "ApiTodoGroupsListGet",
                "consumes": [],
                "produces": [],
                "responses": { "200": { "description": "Success" } }
            }
        },
        "/api/TodoGroups/Get": {
            "get": {
                "tags": ["TodoGroups"],
                "operationId": "ApiTodoGroupsGetGet",
                "consumes": [],
                "produces": [],
                "parameters": [{ "name": "id", "in": "path", "required": true, "type": "string" }],
                "responses": { "200": { "description": "Success" } }
            }
        },
        "/api/TodoGroups/Create": {
            "post": {
                "tags": ["TodoGroups"],
                "operationId": "ApiTodoGroupsCreatePost",
                "consumes": ["application/json-patch+json", "application/json", "text/json", "application/*+json"],
                "produces": [],
                "parameters": [{ "name": "dto", "in": "body", "required": false, "schema": { "$ref": "#/definitions/InputTodoGroupDto" } }],
                "responses": { "200": { "description": "Success" } }
            }
        },
        "/api/TodoGroups/Delete": {
            "delete": {
                "tags": ["TodoGroups"],
                "operationId": "ApiTodoGroupsDeleteDelete",
                "consumes": [],
                "produces": [],
                "parameters": [{ "name": "id", "in": "path", "required": true, "type": "string" }],
                "responses": { "200": { "description": "Success" } }
            }
        },
        "/api/Todos/List": {
            "get": {
                "tags": ["Todos"],
                "operationId": "ApiTodosListGet",
                "consumes": [],
                "produces": [],
                "parameters": [{ "name": "GroupId", "in": "query", "required": false, "type": "string" }],
                "responses": { "200": { "description": "Success" } }
            }
        },
        "/api/Todos/Create": {
            "post": {
                "tags": ["Todos"],
                "operationId": "ApiTodosCreatePost",
                "consumes": ["application/json-patch+json", "application/json", "text/json", "application/*+json"],
                "produces": [],
                "parameters": [{ "name": "dto", "in": "body", "required": false, "schema": { "$ref": "#/definitions/InputTodoDto" } }],
                "responses": { "200": { "description": "Success" } }
            }
        },
        "/api/Todos/Delete": {
            "delete": {
                "tags": ["Todos"],
                "operationId": "ApiTodosDeleteDelete",
                "consumes": [],
                "produces": [],
                "parameters": [{ "name": "id", "in": "path", "required": true, "type": "string" }],
                "responses": { "200": { "description": "Success" } }
            }
        },
        "/api/Users/Register": {
            "post": {
                "tags": ["Users"],
                "operationId": "ApiUsersRegisterPost",
                "consumes": ["application/json-patch+json", "application/json", "text/json", "application/*+json"],
                "produces": [],
                "parameters": [
                    { "name": "dto", "in": "body", "required": false, "schema": { "$ref": "#/definitions/InputUserRegistrationDto" } }
                ],
                "responses": { "200": { "description": "Success" } }
            }
        },
        "/connect/token": {
            "post": {
                "tags": ["Users"],
                "operationId": "ConnectToken",
                "consumes": ["application/x-www-form-urlencoded"],
                "produces": ["application/json"],
                "parameters": [
                    {
                        "name": "body",
                        "in": "body",
                        "description": "Authentication",
                        "required": true,
                        "schema": {
                            "$ref": "#/definitions/UserLogin"
                        }
                    }
                ],
                "responses": { "200": { "description": "Success", "schema": { "$ref": "#/definitions/UserLoginResponse" } } }
            }
        }
    },
    "definitions": {
        "InputTodoGroupDto": { "type": "object", "properties": { "id": { "type": "string" }, "title": { "type": "string" } } },
        "InputTodoDto": {
            "type": "object",
            "properties": {
                "id": { "type": "string" },
                "title": { "type": "string" },
                "isDone": { "type": "boolean" },
                "parentId": { "type": "string" },
                "groupId": { "type": "string" }
            }
        },
        "InputUserRegistrationDto": {
            "type": "object",
            "properties": { "email": { "type": "string" }, "password": { "type": "string" }, "confirmPassword": { "type": "string" } }
        },
        "UserLogin": {
            "type": "object",
            "properties": {
                "grant_type": { "type": "string", "example": "password" },
                "username": { "type": "string" },
                "password": { "type": "string" }
            }
        },
        "UserLoginResponse": {
            "type": "object",
            "properties": {
                "scope": { "type": "string", "example": "offline_access" },
                "tokenType": { "type": "string", "example": "Bearer" },
                "access_token": { "type": "string" },
                "expires_in": { "type": "number", "example": 3600 },
                "refresh_token": { "type": "string" }
            }
        }
    }
}
